[
  {
    "nama": "Pemohon",
    "singkatan": "Pemohon"
  },
  {
    "nama": "Menteri Lingkungan Hidup dan Kehutanan",
    "singkatan": "Menteri"
  },
  {
    "nama": "Direktur Utama Perum Perhutani",
    "singkatan": "Direksi"
  },
  {
    "nama": "Direktur Pengembangan Bisnis dan Pemasaran",
    "singkatan": "Divre"
  },
  {
    "nama": "Kepala Departemen Perencanaan dan Pengembangan Bisnis",
    "singkatan": "Depren"
  },
  {
    "nama": "Administratur/KKPH",
    "singkatan": "KKPH"
  }
]