{
    "preset": "laravel",
    "disabled": [
        "SpaceAfterSoleNotOperator",
        "OneLineBetweenClassVisibilityChanges",
        "UseConfigOverEnv",
        "ModelMethodOrder",
        "ImportFacades",
        "ClassThingsOrder",
        "UseAuthHelperOverFacade"
    ]
}